Interfaz_de_memoria/Interfaz_de_memoria.sim/sim_1/behav/xsim/simulate.log
Time resolution is 1 ps
Tiempo:                    0 | CLK=0 RST=1 ENA=0 DATAIN=00 DATAOUT=80808080
Tiempo:                 5000 | CLK=1 RST=1 ENA=0 DATAIN=00 DATAOUT=80808080
Tiempo:                10000 | CLK=0 RST=1 ENA=0 DATAIN=00 DATAOUT=80808080
Tiempo:                15000 | CLK=1 RST=1 ENA=0 DATAIN=00 DATAOUT=80808080
Test 1: Reset funcionando correctamente
Tiempo:                20000 | CLK=0 RST=0 ENA=1 DATAIN=0a DATAOUT=80808080
Tiempo:                25000 | CLK=1 RST=0 ENA=1 DATAIN=0a DATAOUT=8080800a
Tiempo:                30000 | CLK=0 RST=0 ENA=1 DATAIN=f0 DATAOUT=8080800a
Tiempo:                35000 | CLK=1 RST=0 ENA=1 DATAIN=f0 DATAOUT=80800af0
Tiempo:                40000 | CLK=0 RST=0 ENA=1 DATAIN=d7 DATAOUT=80800af0
Tiempo:                45000 | CLK=1 RST=0 ENA=1 DATAIN=d7 DATAOUT=800af0d7
Tiempo:                50000 | CLK=0 RST=0 ENA=1 DATAIN=51 DATAOUT=800af0d7
Tiempo:                55000 | CLK=1 RST=0 ENA=1 DATAIN=51 DATAOUT=0af0d751
Test 2: Carga secuencial funcionando correctamente
Tiempo:                60000 | CLK=0 RST=0 ENA=0 DATAIN=ff DATAOUT=0af0d751
Tiempo:                65000 | CLK=1 RST=0 ENA=0 DATAIN=ff DATAOUT=0af0d751
Test 3: Retención con ENA=0 funcionando correctamente
Tiempo:                70000 | CLK=0 RST=0 ENA=0 DATAIN=ff DATAOUT=0af0d751
Tiempo:                75000 | CLK=1 RST=1 ENA=0 DATAIN=ff DATAOUT=80808080
Test 4: Reset asíncrono funcionando correctamente
Tiempo:                80000 | CLK=0 RST=0 ENA=1 DATAIN=11 DATAOUT=80808080
Tiempo:                85000 | CLK=1 RST=0 ENA=1 DATAIN=11 DATAOUT=80808011
Tiempo:                90000 | CLK=0 RST=0 ENA=1 DATAIN=22 DATAOUT=80808011
Tiempo:                95000 | CLK=1 RST=0 ENA=1 DATAIN=22 DATAOUT=80801122
Tiempo:               100000 | CLK=0 RST=0 ENA=1 DATAIN=33 DATAOUT=80801122
Tiempo:               105000 | CLK=1 RST=0 ENA=1 DATAIN=33 DATAOUT=80112233
Tiempo:               110000 | CLK=0 RST=0 ENA=1 DATAIN=44 DATAOUT=80112233
Tiempo:               115000 | CLK=1 RST=0 ENA=1 DATAIN=44 DATAOUT=11223344
Test 5: Llenado completo funcionando correctamente
Tiempo:               120000 | CLK=0 RST=0 ENA=1 DATAIN=aa DATAOUT=11223344
Tiempo:               125000 | CLK=1 RST=0 ENA=1 DATAIN=aa DATAOUT=223344aa
Tiempo:               130000 | CLK=0 RST=0 ENA=1 DATAIN=55 DATAOUT=223344aa
Tiempo:               135000 | CLK=1 RST=0 ENA=1 DATAIN=55 DATAOUT=3344aa55
Tiempo:               140000 | CLK=0 RST=0 ENA=1 DATAIN=aa DATAOUT=3344aa55
Tiempo:               145000 | CLK=1 RST=0 ENA=1 DATAIN=aa DATAOUT=44aa55aa
Tiempo:               150000 | CLK=0 RST=0 ENA=1 DATAIN=55 DATAOUT=44aa55aa
Tiempo:               155000 | CLK=1 RST=0 ENA=1 DATAIN=55 DATAOUT=aa55aa55
Test 6: Valores alternos funcionando correctamente
Tiempo:               160000 | CLK=0 RST=0 ENA=1 DATAIN=ff DATAOUT=aa55aa55
Tiempo:               165000 | CLK=1 RST=0 ENA=1 DATAIN=ff DATAOUT=55aa55ff
Tiempo:               170000 | CLK=0 RST=0 ENA=1 DATAIN=ff DATAOUT=55aa55ff
Tiempo:               175000 | CLK=1 RST=0 ENA=1 DATAIN=ff DATAOUT=aa55ffff
Tiempo:               180000 | CLK=0 RST=0 ENA=1 DATAIN=ff DATAOUT=aa55ffff
Tiempo:               185000 | CLK=1 RST=0 ENA=1 DATAIN=ff DATAOUT=55ffffff
Tiempo:               190000 | CLK=0 RST=0 ENA=1 DATAIN=ff DATAOUT=55ffffff
Tiempo:               195000 | CLK=1 RST=0 ENA=1 DATAIN=ff DATAOUT=ffffffff
Test 7: Valores máximos funcionando correctamente
Tiempo:               200000 | CLK=0 RST=0 ENA=1 DATAIN=ff DATAOUT=ffffffff
Tiempo:               205000 | CLK=1 RST=0 ENA=1 DATAIN=ff DATAOUT=ffffffff
Todos los tests completados
$finish called at time : 210 ns : File "/home/alfaquillo/Documentos/Vivado/Interfaz_de_memoria/Interfaz_de_memoria.srcs/sim_1/new/queue_tb.sv" Line 141
INFO: xsimkernel Simulation Memory Usage: 484384 KB (Peak: 541656 KB), Simulation CPU Usage: 1950 ms
